{"count":18493,"next":"https://www.econdb.com/api/datasets/?format=json&page=2","previous":null,"results":[{"dataset":"ENPR_PSLM","description":"ENP countries: labour market","size":163,"components":"https://www.econdb.com/api/series/?dataset=ENPR_PSLM","lastupdate":"2016-08-29","last_sync":"2017-04-22T21:56:12","source":{"name":"Eurostat","detail":"https://www.econdb.com/api/sources/EU"}},{"dataset":"TESEM250","description":"Lifelong learning - Percentage of adult population aged 25-64 participating in education and training","size":37,"components":"https://www.econdb.com/api/series/?dataset=TESEM250","lastupdate":"2017-04-12","last_sync":"2017-04-17T20:37:53","source":{"name":"Eurostat","detail":"https://www.econdb.com/api/sources/EU"}},{"dataset":"NAMA_10_A64_E","description":"National Accounts employment data by industry (up to NACE A*64)","size":37211,"components":"https://www.econdb.com/api/series/?dataset=NAMA_10_A64_E","lastupdate":"2017-03-15","last_sync":"2017-04-22T22:07:32","source":{"name":"Eurostat","detail":"https://www.econdb.com/api/sources/EU"}},{"dataset":"ENPR_SIGEB","description":"ENP countries: SI - General Economic Background","size":26,"components":"https://www.econdb.com/api/series/?dataset=ENPR_SIGEB","lastupdate":"2016-08-29","last_sync":"2017-04-22T21:55:56","source":{"name":"Eurostat","detail":"https://www.econdb.com/api/sources/EU"}},{"dataset":"TRNG_CVTS3_22","description":"Percentage of training enterprises making use of an External advisory service by size class","size":464,"components":"https://www.econdb.com/api/series/?dataset=TRNG_CVTS3_22","lastupdate":"2014-07-22","last_sync":"2017-04-22T15:44:11","source":{"name":"Eurostat","detail":"https://www.econdb.com/api/sources/EU"}},{"dataset":"NAIO_19_AGG_60","description":"Input-output table for imports at current prices, 60 branches - EU aggregates","size":55686139,"components":"https://www.econdb.com/api/series/?dataset=NAIO_19_AGG_60","lastupdate":"2012-01-12","last_sync":"2017-04-22T12:00:33","source":{"name":"Eurostat","detail":"https://www.econdb.com/api/sources/EU"}},{"dataset":"NAMA_FCS_C","description":"Final consumption aggregates - current prices","size":4569,"components":"https://www.econdb.com/api/series/?dataset=NAMA_FCS_C","lastupdate":"2016-09-27","last_sync":"2017-04-21T22:55:40","source":{"name":"Eurostat","detail":"https://www.econdb.com/api/sources/EU"}},{"dataset":"NAMA_FCS_K","description":"Final consumption aggregates - volumes","size":5070,"components":"https://www.econdb.com/api/series/?dataset=NAMA_FCS_K","lastupdate":"2016-09-29","last_sync":"2017-04-21T22:56:16","source":{"name":"Eurostat","detail":"https://www.econdb.com/api/sources/EU"}},{"dataset":"ENPR_PSEDUC","description":"ENP countries: education","size":75,"components":"https://www.econdb.com/api/series/?dataset=ENPR_PSEDUC","lastupdate":"2016-08-29","last_sync":"2017-04-22T21:56:11","source":{"name":"Eurostat","detail":"https://www.econdb.com/api/sources/EU"}},{"dataset":"PAT_EP_MBIO","description":"Biotechnology patent applications to the EPO by priority year by metropolitan regions","size":819,"components":"https://www.econdb.com/api/series/?dataset=PAT_EP_MBIO","lastupdate":"2016-01-26","last_sync":"2016-11-19T16:00:20","source":{"name":"Eurostat","detail":"https://www.econdb.com/api/sources/EU"}}]}