{"count":1000,"next":"https://www.econdb.com/api/series/?format=json&page=2","previous":null,"results":[{"ticker":"EU.RAIL_TF_HAUTYPE_37D91.Y.AT","description":"Million VKM (vehicle-kilometres); Total","geography":"AT:Austria","frequency":"Y","dataset":"https://www.econdb.com/api/datasets/RAIL_TF_HAUTYPE","units":"Million VKM (vehicle-kilometres)","additional_metadata":{"UNIT:Unit of measure":"MIO_VKM:Million VKM (vehicle-kilometres)","FREQ:Frequency":"A:Annual","GEO:Geopolitical entity (reporting)":"AT:Austria","VEHICLE:Vehicles":"TOTAL:Total"},"data":{"dates":["2007-12-01"],"values":["868502.0"]}},{"ticker":"EU.RAIL_TF_HAUTYPE_31EC7.Y.AT","description":"Million VKM (vehicle-kilometres); Passenger railway vehicles","geography":"AT:Austria","frequency":"Y","dataset":"https://www.econdb.com/api/datasets/RAIL_TF_HAUTYPE","units":"Million VKM (vehicle-kilometres)","additional_metadata":{"UNIT:Unit of measure":"MIO_VKM:Million VKM (vehicle-kilometres)","FREQ:Frequency":"A:Annual","GEO:Geopolitical entity (reporting)":"AT:Austria","VEHICLE:Vehicles":"RL_PAS:Passenger railway vehicles"},"data":{"dates":["2007-12-01","2012-12-01","2013-12-01","2014-12-01"],"values":["14116.0","344.0","357.0","403.0"]}},{"ticker":"EU.RAIL_TF_HAUTYPE_37DCA.Y.AT","description":"Million VKM (vehicle-kilometres); Goods wagons - loaded","geography":"AT:Austria","frequency":"Y","dataset":"https://www.econdb.com/api/datasets/RAIL_TF_HAUTYPE","units":"Million VKM (vehicle-kilometres)","additional_metadata":{"UNIT:Unit of measure":"MIO_VKM:Million VKM (vehicle-kilometres)","FREQ:Frequency":"A:Annual","GEO:Geopolitical entity (reporting)":"AT:Austria","VEHICLE:Vehicles":"WAG_GD_LD:Goods wagons - loaded"},"data":{"dates":["2007-12-01","2012-12-01","2013-12-01","2014-12-01"],"values":["556690.0","202.0","201.0","282.0"]}},{"ticker":"EU.RAIL_TF_HAUTYPE_37DCB.Y.AT","description":"Million VKM (vehicle-kilometres); Goods wagons - empty","geography":"AT:Austria","frequency":"Y","dataset":"https://www.econdb.com/api/datasets/RAIL_TF_HAUTYPE","units":"Million VKM (vehicle-kilometres)","additional_metadata":{"UNIT:Unit of measure":"MIO_VKM:Million VKM (vehicle-kilometres)","FREQ:Frequency":"A:Annual","GEO:Geopolitical entity (reporting)":"AT:Austria","VEHICLE:Vehicles":"WAG_GD_EMP:Goods wagons - empty"},"data":{"dates":["2007-12-01","2012-12-01","2013-12-01","2014-12-01"],"values":["297696.0","99.0","98.0","136.0"]}},{"ticker":"EU.RAIL_TF_HAUTYPE_31ED5.Y.AT","description":"Million VKM (vehicle-kilometres); Goods wagons - total","geography":"AT:Austria","frequency":"Y","dataset":"https://www.econdb.com/api/datasets/RAIL_TF_HAUTYPE","units":"Million VKM (vehicle-kilometres)","additional_metadata":{"UNIT:Unit of measure":"MIO_VKM:Million VKM (vehicle-kilometres)","FREQ:Frequency":"A:Annual","GEO:Geopolitical entity (reporting)":"AT:Austria","VEHICLE:Vehicles":"WAG_GD:Goods wagons - total"},"data":{"dates":["2007-12-01","2012-12-01","2013-12-01","2014-12-01"],"values":["854386.0","302.0","299.0","418.0"]}},{"ticker":"EU.RAIL_TF_HAUTYPE_37D91.Y.BE","description":"Million VKM (vehicle-kilometres); Total","geography":"BE:Belgium","frequency":"Y","dataset":"https://www.econdb.com/api/datasets/RAIL_TF_HAUTYPE","units":"Million VKM (vehicle-kilometres)","additional_metadata":{"UNIT:Unit of measure":"MIO_VKM:Million VKM (vehicle-kilometres)","FREQ:Frequency":"A:Annual","GEO:Geopolitical entity (reporting)":"BE:Belgium","VEHICLE:Vehicles":"TOTAL:Total"},"data":{"dates":["1997-12-01","1998-12-01","1999-12-01","2001-12-01","2002-12-01","2003-12-01","2004-12-01","2005-12-01","2006-12-01","2007-12-01","2008-12-01","2009-12-01"],"values":["664.0","708.0","707.0","744.0","757.0","780.0","723.0","647.0","745.0","768.0","758.0","880.0"]}},{"ticker":"EU.RAIL_TF_HAUTYPE_31EC7.Y.BE","description":"Million VKM (vehicle-kilometres); Passenger railway vehicles","geography":"BE:Belgium","frequency":"Y","dataset":"https://www.econdb.com/api/datasets/RAIL_TF_HAUTYPE","units":"Million VKM (vehicle-kilometres)","additional_metadata":{"UNIT:Unit of measure":"MIO_VKM:Million VKM (vehicle-kilometres)","FREQ:Frequency":"A:Annual","GEO:Geopolitical entity (reporting)":"BE:Belgium","VEHICLE:Vehicles":"RL_PAS:Passenger railway vehicles"},"data":{"dates":["1995-12-01","1996-12-01","1997-12-01","1998-12-01","1999-12-01","2001-12-01","2002-12-01","2003-12-01","2004-12-01","2005-12-01","2006-12-01","2007-12-01","2008-12-01","2009-12-01"],"values":["326.0","304.0","326.0","362.0","354.0","409.0","415.0","435.0","380.0","364.0","425.0","458.0","447.0","464.0"]}},{"ticker":"EU.RAIL_TF_HAUTYPE_37DC9.Y.BE","description":"Million VKM (vehicle-kilometres); Vans","geography":"BE:Belgium","frequency":"Y","dataset":"https://www.econdb.com/api/datasets/RAIL_TF_HAUTYPE","units":"Million VKM (vehicle-kilometres)","additional_metadata":{"UNIT:Unit of measure":"MIO_VKM:Million VKM (vehicle-kilometres)","FREQ:Frequency":"A:Annual","GEO:Geopolitical entity (reporting)":"BE:Belgium","VEHICLE:Vehicles":"VAN:Vans"},"data":{"dates":["1995-12-01","1996-12-01","1997-12-01","1998-12-01","1999-12-01","2000-12-01","2001-12-01","2002-12-01","2003-12-01","2004-12-01","2005-12-01","2006-12-01","2007-12-01","2008-12-01","2009-12-01"],"values":["1.0","2.0","1.0","2.0","2.0","2.0","2.0","2.0","1.0","1.0","1.0","1.0","1.0","1.0","1.0"]}},{"ticker":"EU.RAIL_TF_HAUTYPE_37DCA.Y.BE","description":"Million VKM (vehicle-kilometres); Goods wagons - loaded","geography":"BE:Belgium","frequency":"Y","dataset":"https://www.econdb.com/api/datasets/RAIL_TF_HAUTYPE","units":"Million VKM (vehicle-kilometres)","additional_metadata":{"UNIT:Unit of measure":"MIO_VKM:Million VKM (vehicle-kilometres)","FREQ:Frequency":"A:Annual","GEO:Geopolitical entity (reporting)":"BE:Belgium","VEHICLE:Vehicles":"WAG_GD_LD:Goods wagons - loaded"},"data":{"dates":["1980-12-01","1981-12-01","1982-12-01","1983-12-01","1984-12-01","1985-12-01","1986-12-01","1987-12-01","1988-12-01","1989-12-01","1990-12-01","1991-12-01","1992-12-01","1993-12-01","1994-12-01","1995-12-01","1996-12-01","1997-12-01","1998-12-01","1999-12-01","2000-12-01","2001-12-01","2002-12-01","2003-12-01","2004-12-01","2005-12-01","2006-12-01","2007-12-01","2008-12-01","2009-12-01"],"values":["257.0","232.0","210.0","206.0","227.0","260.0","237.0","235.0","239.0","247.0","249.0","235.0","236.0","213.0","226.0","207.0","199.0","205.0","213.0","220.0","229.0","208.0","211.0","0.0","0.0","0.0","203.0","203.0","196.0","131.0"]}},{"ticker":"EU.RAIL_TF_HAUTYPE_37DCB.Y.BE","description":"Million VKM (vehicle-kilometres); Goods wagons - empty","geography":"BE:Belgium","frequency":"Y","dataset":"https://www.econdb.com/api/datasets/RAIL_TF_HAUTYPE","units":"Million VKM (vehicle-kilometres)","additional_metadata":{"UNIT:Unit of measure":"MIO_VKM:Million VKM (vehicle-kilometres)","FREQ:Frequency":"A:Annual","GEO:Geopolitical entity (reporting)":"BE:Belgium","VEHICLE:Vehicles":"WAG_GD_EMP:Goods wagons - empty"},"data":{"dates":["1980-12-01","1981-12-01","1982-12-01","1983-12-01","1984-12-01","1985-12-01","1986-12-01","1987-12-01","1988-12-01","1989-12-01","1990-12-01","1991-12-01","1992-12-01","1993-12-01","1994-12-01","1995-12-01","1996-12-01","1997-12-01","1998-12-01","1999-12-01","2000-12-01","2001-12-01","2002-12-01","2003-12-01","2004-12-01","2005-12-01","2006-12-01","2007-12-01","2008-12-01","2009-12-01"],"values":["142.0","185.0","159.0","156.0","175.0","193.0","176.0","172.0","173.0","179.0","180.0","171.0","170.0","152.0","159.0","140.0","135.0","131.0","131.0","132.0","131.0","125.0","129.0","0.0","0.0","0.0","116.0","106.0","114.0","76.0"]}}]}